<?xml version="1.0" encoding="UTF-8" standalone="no"?>
<!-- Created with Inkscape (http://www.inkscape.org/) -->

<svg
   width="41.922092mm"
   height="42.07679mm"
   viewBox="0 0 45.937197 46.106711"
   version="1.1"
   id="svg5"
   inkscape:version="1.2 (dc2aeda, 2022-05-15)"
   sodipodi:docname="square_of_diff.svg"
   inkscape:export-filename="square_of_sum.png"
   inkscape:export-xdpi="200"
   inkscape:export-ydpi="200"
   xmlns:inkscape="http://www.inkscape.org/namespaces/inkscape"
   xmlns:sodipodi="http://sodipodi.sourceforge.net/DTD/sodipodi-0.dtd"
   xmlns="http://www.w3.org/2000/svg"
   xmlns:svg="http://www.w3.org/2000/svg"
   xmlns:rdf="http://www.w3.org/1999/02/22-rdf-syntax-ns#"
   xmlns:cc="http://creativecommons.org/ns#">
  <sodipodi:namedview
     id="namedview7"
     pagecolor="#ffffff"
     bordercolor="#666666"
     borderopacity="1.0"
     inkscape:showpageshadow="2"
     inkscape:pageopacity="0.0"
     inkscape:pagecheckerboard="0"
     inkscape:deskcolor="#d1d1d1"
     inkscape:document-units="mm"
     showgrid="false"
     showguides="true"
     inkscape:zoom="4.7572176"
     inkscape:cx="93.647177"
     inkscape:cy="63.58759"
     inkscape:window-width="2560"
     inkscape:window-height="1395"
     inkscape:window-x="0"
     inkscape:window-y="23"
     inkscape:window-maximized="1"
     inkscape:current-layer="layer1">
    <sodipodi:guide
       position="7.0674031,43.284021"
       orientation="0,-1"
       id="guide881"
       inkscape:locked="false" />
    <sodipodi:guide
       position="2.6531736,43.284022"
       orientation="1,0"
       id="guide883"
       inkscape:locked="false" />
    <sodipodi:guide
       position="6.8950271,0.13768881"
       orientation="0,-1"
       id="guide885"
       inkscape:locked="false" />
    <sodipodi:guide
       position="45.799505,43.284022"
       orientation="1,0"
       id="guide887"
       inkscape:locked="false" />
  </sodipodi:namedview>
  <defs
     id="defs2">
    <rect
       x="291.34677"
       y="490.62292"
       width="89.548141"
       height="16.816553"
       id="rect567" />
  </defs>
  <g
     inkscape:label="Layer 1"
     inkscape:groupmode="layer"
     id="layer1"
     transform="translate(-12.705467,-62.122157)">
    <rect
       style="fill:#e6e6e6;fill-opacity:0.757085;stroke:#000000;stroke-width:0.275378;stroke-linecap:round"
       id="rect891"
       width="43.146332"
       height="43.146332"
       x="15.358641"
       y="64.944847" />
    <rect
       style="fill:#ffffff;fill-opacity:0.757085;stroke:#000000;stroke-width:0.275378;stroke-linecap:round"
       id="rect219"
       width="29.284056"
       height="29.284056"
       x="15.358641"
       y="64.944847" />
    <rect
       style="fill:#999999;fill-opacity:0.757085;stroke:#000000;stroke-width:0.275378;stroke-linecap:round"
       id="rect277"
       width="13.862278"
       height="13.862278"
       x="44.642696"
       y="94.228905" />
    <text
       xml:space="preserve"
       style="font-size:2.33154px;line-height:1.25;font-family:sans-serif;-inkscape-font-specification:'sans-serif, Normal';stroke-width:0.145721"
       x="12.565438"
       y="87.154404"
       id="text436"><tspan
         sodipodi:role="line"
         id="tspan434"
         style="stroke-width:0.145721"
         x="12.565438"
         y="87.154404">a</tspan></text>
    <text
       xml:space="preserve"
       style="font-size:2.33154px;line-height:1.25;font-family:sans-serif;-inkscape-font-specification:'sans-serif, Normal';stroke-width:0.145721"
       x="36.253292"
       y="63.860561"
       id="text444"><tspan
         sodipodi:role="line"
         id="tspan442"
         style="stroke-width:0.145721"
         x="36.253292"
         y="63.860561">a</tspan></text>
    <text
       xml:space="preserve"
       style="font-size:2.33154px;line-height:1.25;font-family:sans-serif;-inkscape-font-specification:'sans-serif, Normal';text-align:center;text-anchor:middle;stroke-width:0.145721"
       x="30.000669"
       y="80.223267"
       id="text563"><tspan
         sodipodi:role="line"
         id="tspan561"
         style="text-align:center;text-anchor:middle;stroke-width:0.145721"
         x="30.000669"
         y="80.223267">(a-b)x(a-b)</tspan></text>
    <text
       xml:space="preserve"
       transform="matrix(0.14572114,0,0,0.14572114,7.9076677,30.115882)"
       id="text565"
       style="font-size:16px;line-height:1.25;font-family:sans-serif;-inkscape-font-specification:'sans-serif, Normal';white-space:pre;shape-inside:url(#rect567);display:inline" />
    <text
       xml:space="preserve"
       style="font-size:2.33154px;line-height:1.25;font-family:sans-serif;-inkscape-font-specification:'sans-serif, Normal';text-align:center;text-anchor:middle;stroke-width:0.145721"
       x="51.531712"
       y="102.02925"
       id="text573"><tspan
         sodipodi:role="line"
         id="tspan571"
         style="text-align:center;text-anchor:middle;stroke-width:0.145721"
         x="51.531712"
         y="102.02925">bxb</tspan></text>
    <text
       xml:space="preserve"
       style="font-size:2.33154px;line-height:1.25;font-family:sans-serif;-inkscape-font-specification:'sans-serif, Normal';stroke-width:0.145721"
       x="34.242794"
       y="102.02925"
       id="text577"><tspan
         sodipodi:role="line"
         id="tspan575"
         style="stroke-width:0.145721"
         x="34.242794"
         y="102.02925">axb</tspan></text>
    <text
       xml:space="preserve"
       style="font-size:2.33154px;line-height:1.25;font-family:sans-serif;-inkscape-font-specification:'sans-serif, Normal';stroke-width:0.145721"
       x="49.423309"
       y="88.056625"
       id="text581"><tspan
         sodipodi:role="line"
         id="tspan579"
         style="stroke-width:0.145721"
         x="49.423309"
         y="88.056625">axb</tspan></text>
  </g>
  <metadata
     id="metadata628">
    <rdf:RDF>
      <cc:Work
         rdf:about="">
        <cc:license
           rdf:resource="http://creativecommons.org/publicdomain/zero/1.0/" />
      </cc:Work>
      <cc:License
         rdf:about="http://creativecommons.org/publicdomain/zero/1.0/">
        <cc:permits
           rdf:resource="http://creativecommons.org/ns#Reproduction" />
        <cc:permits
           rdf:resource="http://creativecommons.org/ns#Distribution" />
        <cc:permits
           rdf:resource="http://creativecommons.org/ns#DerivativeWorks" />
      </cc:License>
    </rdf:RDF>
  </metadata>
</svg>
