<?xml version="1.0" encoding="UTF-8" standalone="no"?>
<!-- Created with Inkscape (http://www.inkscape.org/) -->

<svg
   width="90.797325mm"
   height="96.599388mm"
   viewBox="0 0 90.797327 96.599389"
   version="1.1"
   id="svg5"
   inkscape:version="1.2.1 (9c6d41e4, 2022-07-14)"
   sodipodi:docname="triangle1.svg"
   xmlns:inkscape="http://www.inkscape.org/namespaces/inkscape"
   xmlns:sodipodi="http://sodipodi.sourceforge.net/DTD/sodipodi-0.dtd"
   xmlns="http://www.w3.org/2000/svg"
   xmlns:svg="http://www.w3.org/2000/svg">
  <sodipodi:namedview
     id="namedview7"
     pagecolor="#ffffff"
     bordercolor="#666666"
     borderopacity="1.0"
     inkscape:showpageshadow="2"
     inkscape:pageopacity="0.0"
     inkscape:pagecheckerboard="0"
     inkscape:deskcolor="#d1d1d1"
     inkscape:document-units="mm"
     showgrid="false"
     showguides="true"
     inkscape:zoom="1.6819304"
     inkscape:cx="-162.31349"
     inkscape:cy="132.88302"
     inkscape:window-width="2560"
     inkscape:window-height="1395"
     inkscape:window-x="0"
     inkscape:window-y="23"
     inkscape:window-maximized="1"
     inkscape:current-layer="layer1">
    <sodipodi:guide
       position="-4.1797709,21.301345"
       orientation="-0.21692767,-0.97618768"
       id="guide686"
       inkscape:locked="false" />
    <sodipodi:guide
       position="35.608039,41.099007"
       orientation="-0.70710641,0.70710715"
       id="guide799"
       inkscape:locked="false" />
    <sodipodi:guide
       position="74.441739,27.391403"
       orientation="1,0"
       id="guide801"
       inkscape:locked="false" />
  </sodipodi:namedview>
  <defs
     id="defs2" />
  <g
     inkscape:label="Layer 1"
     inkscape:groupmode="layer"
     id="layer1"
     transform="translate(3.3379249,-67.651126)">
    <path
       style="fill:none;stroke:#000000;stroke-width:0.565;stroke-linecap:butt;stroke-linejoin:miter;stroke-dasharray:none;stroke-opacity:1"
       d="M 71.103812,160.42038 8.8378958,146.5837 71.103812,84.31785 Z"
       id="path920"
       sodipodi:nodetypes="cccc" />
    <path
       style="fill:none;stroke:#000000;stroke-width:0.565;stroke-linecap:butt;stroke-linejoin:miter;stroke-dasharray:1.13, 0.565;stroke-dashoffset:0;stroke-opacity:1"
       d="m 71.103812,160.42038 16.355592,3.63453"
       id="path922"
       sodipodi:nodetypes="cc" />
    <path
       style="fill:none;fill-opacity:0.757085;stroke:#000000;stroke-width:0.564999;stroke-linecap:round;stroke-dasharray:none;stroke-dashoffset:0"
       id="path1136"
       sodipodi:type="arc"
       sodipodi:cx="71.103813"
       sodipodi:cy="84.317848"
       sodipodi:rx="6.5784054"
       sodipodi:ry="6.5784054"
       sodipodi:start="1.5786232"
       sodipodi:end="2.3505959"
       sodipodi:arc-type="slice"
       d="m 71.052325,90.896052 a 6.5784054,6.5784054 0 0 1 -4.574032,-1.900599 l 4.62552,-4.677605 z" />
    <path
       style="fill:none;fill-opacity:0.757085;stroke:#000000;stroke-width:0.564999;stroke-linecap:round;stroke-dasharray:none;stroke-dashoffset:0"
       id="path1185"
       sodipodi:type="arc"
       sodipodi:cx="8.8378954"
       sodipodi:cy="146.58369"
       sodipodi:rx="6.5784054"
       sodipodi:ry="6.5784054"
       sodipodi:start="5.4976164"
       sodipodi:end="0.21350178"
       sodipodi:arc-type="slice"
       d="m 13.488736,141.93127 a 6.5784054,6.5784054 0 0 1 1.778202,6.04628 l -6.4290426,-1.39386 z" />
    <path
       style="fill:none;fill-opacity:0.757085;stroke:#000000;stroke-width:0.564999;stroke-linecap:round;stroke-dasharray:0.564999, 1.13;stroke-dashoffset:0"
       id="path1187"
       sodipodi:type="arc"
       sodipodi:cx="71.103813"
       sodipodi:cy="160.42038"
       sodipodi:rx="6.5784054"
       sodipodi:ry="6.5784054"
       sodipodi:start="4.71397"
       sodipodi:end="0.21350178"
       sodipodi:arc-type="slice"
       d="m 71.114214,153.84198 a 6.5784054,6.5784054 0 0 1 5.113641,2.45292 6.5784054,6.5784054 0 0 1 1.305,5.51933 l -6.429042,-1.39385 z" />
    <path
       style="fill:none;fill-opacity:0.757085;stroke:#000000;stroke-width:0.564999;stroke-linecap:round;stroke-dasharray:none;stroke-dashoffset:0"
       id="path1189"
       sodipodi:type="arc"
       sodipodi:cx="71.103813"
       sodipodi:cy="160.42038"
       sodipodi:rx="6.5784054"
       sodipodi:ry="6.5784054"
       sodipodi:start="3.3715856"
       sodipodi:end="4.7091604"
       sodipodi:arc-type="slice"
       d="m 64.69863,158.9207 a 6.5784054,6.5784054 0 0 1 6.383944,-5.07869 l 0.02124,6.57837 z" />
    <text
       xml:space="preserve"
       style="font-size:4.23333px;line-height:1.25;font-family:sans-serif;-inkscape-font-specification:'sans-serif, Normal';stroke-width:0.264583"
       x="32.484375"
       y="117.98199"
       id="text1245"><tspan
         sodipodi:role="line"
         id="tspan1243"
         style="stroke-width:0.264583"
         x="32.484375"
         y="117.98199">a</tspan></text>
    <text
       xml:space="preserve"
       style="font-size:4.23333px;line-height:1.25;font-family:sans-serif;-inkscape-font-specification:'sans-serif, Normal';stroke-width:0.264583"
       x="73.227493"
       y="122.20419"
       id="text1249"><tspan
         sodipodi:role="line"
         id="tspan1247"
         style="stroke-width:0.264583"
         x="73.227493"
         y="122.20419">b</tspan></text>
    <text
       xml:space="preserve"
       style="font-size:4.23333px;line-height:1.25;font-family:sans-serif;-inkscape-font-specification:'sans-serif, Normal';stroke-width:0.264583"
       x="36.102486"
       y="157.16776"
       id="text1253"><tspan
         sodipodi:role="line"
         id="tspan1251"
         style="stroke-width:0.264583"
         x="36.102486"
         y="157.16776">c</tspan></text>
    <text
       xml:space="preserve"
       style="font-style:normal;font-variant:normal;font-weight:normal;font-stretch:normal;font-size:4.23333px;line-height:1.25;font-family:sans-serif;-inkscape-font-specification:'sans-serif, Normal';font-variant-ligatures:normal;font-variant-caps:normal;font-variant-numeric:normal;font-variant-east-asian:normal;stroke-width:0.264583"
       x="17.461336"
       y="146.02541"
       id="text1412"><tspan
         sodipodi:role="line"
         id="tspan1416"
         x="17.461336"
         y="146.02541">𝛼</tspan></text>
    <text
       xml:space="preserve"
       style="font-size:4.23333px;line-height:1.25;font-family:sans-serif;-inkscape-font-specification:'sans-serif, Normal';stroke-width:0.264583"
       x="62.215836"
       y="153.55859"
       id="text1420"><tspan
         sodipodi:role="line"
         id="tspan1418"
         style="stroke-width:0.264583"
         x="62.215836"
         y="153.55859">𝛾</tspan></text>
    <text
       xml:space="preserve"
       style="font-size:4.23333px;line-height:1.25;font-family:sans-serif;-inkscape-font-specification:'sans-serif, Normal';stroke-width:0.264583"
       x="65.74012"
       y="95.486755"
       id="text1424"><tspan
         sodipodi:role="line"
         id="tspan1422"
         style="stroke-width:0.264583"
         x="65.74012"
         y="95.486755">𝛽</tspan></text>
    <text
       xml:space="preserve"
       style="font-size:4.23333px;line-height:1.25;font-family:sans-serif;-inkscape-font-specification:'sans-serif, Normal';stroke-width:0.264583"
       x="79.205246"
       y="156.99394"
       id="text1428"><tspan
         sodipodi:role="line"
         id="tspan1426"
         style="stroke-width:0.264583"
         x="79.205246"
         y="156.99394">𝛾'</tspan></text>
    <path
       style="fill:none;stroke:#000000;stroke-width:0.565;stroke-linecap:butt;stroke-linejoin:miter;stroke-dasharray:1.13, 0.565;stroke-dashoffset:0;stroke-opacity:1"
       d="M -3.1375424,158.55913 8.6725439,146.67481"
       id="path1772"
       sodipodi:nodetypes="cc" />
    <path
       style="fill:none;stroke:#000000;stroke-width:0.565;stroke-linecap:butt;stroke-linejoin:miter;stroke-dasharray:1.13, 0.565;stroke-dashoffset:0;stroke-opacity:1"
       d="M 71.103812,84.31785 V 67.651126"
       id="path1774"
       sodipodi:nodetypes="cc" />
    <path
       style="fill:none;fill-opacity:0.757085;stroke:#000000;stroke-width:0.564999;stroke-linecap:round;stroke-dasharray:0.564999, 1.13;stroke-dashoffset:0"
       id="path1776"
       sodipodi:type="arc"
       sodipodi:cx="71.103813"
       sodipodi:cy="84.317848"
       sodipodi:rx="6.5784054"
       sodipodi:ry="6.5784054"
       sodipodi:start="2.3540935"
       sodipodi:end="4.7122399"
       sodipodi:arc-type="slice"
       d="m 66.461961,88.979246 a 6.5784054,6.5784054 0 0 1 -1.43863,-7.172005 6.5784054,6.5784054 0 0 1 6.079501,-4.067798 l 9.81e-4,6.578405 z" />
    <path
       style="fill:none;fill-opacity:0.757085;stroke:#000000;stroke-width:0.564999;stroke-linecap:round;stroke-dasharray:0.564999, 1.13;stroke-dashoffset:0"
       id="path1778"
       sodipodi:type="arc"
       sodipodi:cx="8.8379011"
       sodipodi:cy="146.58369"
       sodipodi:rx="6.5784054"
       sodipodi:ry="6.5784054"
       sodipodi:start="0.22571219"
       sodipodi:end="2.3552659"
       sodipodi:arc-type="arc"
       d="m 15.249445,148.05595 a 6.5784054,6.5784054 0 0 1 -4.591622,4.8494 6.5784054,6.5784054 0 0 1 -6.4672355,-1.6657"
       sodipodi:open="true" />
    <text
       xml:space="preserve"
       style="font-style:normal;font-variant:normal;font-weight:normal;font-stretch:normal;font-size:4.23333px;line-height:1.25;font-family:sans-serif;-inkscape-font-specification:'sans-serif, Normal';font-variant-ligatures:normal;font-variant-caps:normal;font-variant-numeric:normal;font-variant-east-asian:normal;stroke-width:0.264583"
       x="8.9631147"
       y="158.44525"
       id="text1782"><tspan
         sodipodi:role="line"
         id="tspan1780"
         x="8.9631147"
         y="158.44525">𝛼'</tspan></text>
    <text
       xml:space="preserve"
       style="font-size:4.23333px;line-height:1.25;font-family:sans-serif;-inkscape-font-specification:'sans-serif, Normal';stroke-width:0.264583"
       x="59.133129"
       y="84.003174"
       id="text1786"><tspan
         sodipodi:role="line"
         id="tspan1784"
         style="stroke-width:0.264583"
         x="59.133129"
         y="84.003174">𝛽'</tspan></text>
  </g>
</svg>
